[
    {
        "key": "05",
        "name": "ANTIOQUIA",
        "value": -19.275146079826527
    },
    {
        "key": "08",
        "name": "ATLANTICO",
        "value": -50.76889367134574
    },
    {
        "key": "11",
        "name": "SANTAFE DE BOGOTA D.C",
        "value": -64.9817119799966
    },
    {
        "key": "13",
        "name": "BOLIVAR",
        "value": -43.57489683327569
    },
    {
        "key": "15",
        "name": "BOYACA",
        "value": -63.43435550577872
    },
    {
        "key": "17",
        "name": "CALDAS",
        "value": -99.90908141142314
    },
    {
        "key": "18",
        "name": "CAQUETA",
        "value": 37.536588204949396
    },
    {
        "key": "19",
        "name": "CAUCA",
        "value": 34.09457464675239
    },
    {
        "key": "20",
        "name": "CESAR",
        "value": 34.956615331420835
    },
    {
        "key": "23",
        "name": "CORDOBA",
        "value": 93.04864257597828
    },
    {
        "key": "25",
        "name": "CUNDINAMARCA",
        "value": -46.966288213111355
    },
    {
        "key": "27",
        "name": "CHOCO",
        "value": 29.954244446357734
    },
    {
        "key": "41",
        "name": "HUILA",
        "value": 31.675179045985345
    },
    {
        "key": "44",
        "name": "LA GUAJIRA",
        "value": -40.65095734139925
    },
    {
        "key": "47",
        "name": "MAGDALENA",
        "value": 59.74350413475503
    },
    {
        "key": "50",
        "name": "META",
        "value": -40.57784569429445
    },
    {
        "key": "52",
        "name": "NARIÑO",
        "value": 72.73167049834987
    },
    {
        "key": "54",
        "name": "NORTE DE SANTANDER",
        "value": 87.26488339215365
    },
    {
        "key": "63",
        "name": "QUINDIO",
        "value": 69.44260394981393
    },
    {
        "key": "66",
        "name": "RISARALDA",
        "value": -21.33790664379083
    },
    {
        "key": "68",
        "name": "SANTANDER",
        "value": -78.74081959184025
    },
    {
        "key": "70",
        "name": "SUCRE",
        "value": -34.18199609485208
    },
    {
        "key": "73",
        "name": "TOLIMA",
        "value": 63.28817885784258
    },
    {
        "key": "76",
        "name": "VALLE DEL CAUCA",
        "value": 80.45237993632526
    },
    {
        "key": "81",
        "name": "ARAUCA",
        "value": 17.653909453715457
    },
    {
        "key": "85",
        "name": "CASANARE",
        "value": 81.40415179688691
    },
    {
        "key": "86",
        "name": "PUTUMAYO",
        "value": 5.307339912341874
    },
    {
        "key": "91",
        "name": "AMAZONAS",
        "value": 20.123552459600717
    },
    {
        "key": "94",
        "name": "GUAINIA",
        "value": -31.247275412208083
    },
    {
        "key": "95",
        "name": "GUAVIARE",
        "value": -93.9950042938476
    },
    {
        "key": "97",
        "name": "VAUPES",
        "value": -23.825382308802688
    },
    {
        "key": "99",
        "name": "VICHADA",
        "value": -68.91475797748825
    },
    {
        "key": "88",
        "name": "ARCHIPIELAGO DE SAN ANDRES PROVIDENCIA Y SANTA CATALINA",
        "value": -80.37392205230191
    }
]